name	pronouns	description
Normative former	han,hun	 Det er verdt å nevne at pronomen ikke nødvendigvis samsvarer med kjønn. Man kan være ikke-binær og bruke pronomen som er kongruent med (eller motsatt av) kjønnet deres tildelt ved fødsel.
Semi-normative former	de,den,det	 Diss pronomenene har vært i bruk i normativ norsk allerede, men har nylig fått et nytt bruksområde: til å beskrive en spesifikk person. Husk at den/det pronomen har et rulleblad av å bli brukt av transfobiske grunner, så bare bruk disse for og om folk som ønsker det.
Neopronomen	hen,hin	 I motsetning til de andre pronomenene, som er inkludert i ordbøker utgitt av Språkrådet, er neopronomen nyord som ikke er oppført i ordbøkene. At de ikke er inkludert enda, gjør dem ikke noe verre av den grunn!
